,Subject,variable,value
0,1,original,4.165133770041261
1,2,original,4.035861641697258
2,3,original,3.8839698192313343
3,4,original,4.335933721196017
4,5,original,3.7238705480073824
5,6,original,3.8665493936508795
6,7,original,4.136036353311816
7,8,original,3.908865398552037
8,9,original,4.322492965834534
9,10,original,3.9632150747324246
10,11,original,4.336773413009052
11,12,original,4.136451216992983
12,13,original,4.362311802957049
13,14,original,4.133676219286808
14,15,original,4.183271985101876
15,16,original,4.7797449730778885
16,17,original,3.674041818349718
17,18,original,4.038440157944205
18,19,original,4.2042557416679465
19,20,original,4.550732865210946
20,21,original,4.1593262972281195
21,22,original,4.486969461611407
22,23,original,4.3455021575068145
23,24,original,4.251155082481747
24,1,7-chan,5.003822560070154
25,2,7-chan,4.249659638844712
26,3,7-chan,4.023028330067803
27,4,7-chan,4.626648404336184
28,5,7-chan,4.3652240356310985
29,6,7-chan,4.24420910792227
30,7,7-chan,4.518539784294421
31,8,7-chan,4.35024439866525
32,9,7-chan,4.574594968672327
33,10,7-chan,5.190881956951047
34,11,7-chan,4.340052786527893
35,12,7-chan,3.893213184559227
36,13,7-chan,4.609097840122482
37,14,7-chan,4.240658205627709
38,15,7-chan,4.78736387726205
39,16,7-chan,4.298292401516561
40,17,7-chan,4.531891122799967
41,18,7-chan,4.446644692014387
42,19,7-chan,4.05423035454259
43,20,7-chan,4.453443324343255
44,21,7-chan,4.043461882426473
45,22,7-chan,4.684290342330622
46,23,7-chan,4.103966949961389
47,24,7-chan,4.489025812636404
48,1,5-chan,4.802289951177296
49,2,5-chan,4.520703881995332
50,3,5-chan,4.38217612586043
51,4,5-chan,4.720057780874814
52,5,5-chan,4.362128245795216
53,6,5-chan,4.245971227638338
54,7,5-chan,4.128166167521383
55,8,5-chan,4.086034054051245
56,9,5-chan,4.521426584894841
57,10,5-chan,4.606068844228838
58,11,5-chan,5.026449316332939
59,12,5-chan,3.806808383217265
60,13,5-chan,4.689084428591963
61,14,5-chan,4.120335848354307
62,15,5-chan,4.274228534401526
63,16,5-chan,4.330523269973875
64,17,5-chan,3.7893191454413477
65,18,5-chan,4.424813567331131
66,19,5-chan,4.345981423473611
67,20,5-chan,4.114710859593605
68,21,5-chan,4.362842262230313
69,22,5-chan,4.548322820627466
70,23,5-chan,4.179664814463945
71,24,5-chan,4.809536833912625
72,1,3-chan,4.768023218919089
73,2,3-chan,4.38450337422973
74,3,3-chan,4.430694271825311
75,4,3-chan,4.2791324401660855
76,5,3-chan,4.618527894019395
77,6,3-chan,4.283972987680536
78,7,3-chan,4.162713116569212
79,8,3-chan,5.061934169310214
80,9,3-chan,5.134725183369908
81,10,3-chan,4.9316790482372825
82,11,3-chan,4.885744392186603
83,12,3-chan,4.522205622606331
84,13,3-chan,4.841652732515637
85,14,3-chan,4.629630306485696
86,15,3-chan,5.026546310214481
87,16,3-chan,4.143533185919619
88,17,3-chan,4.579564723884877
89,18,3-chan,5.0245356875118
90,19,3-chan,4.718991817512553
91,20,3-chan,5.042577181260373
92,21,3-chan,4.473013075565398
93,22,3-chan,4.558487727896001
94,23,3-chan,4.294247035808572
95,24,3-chan,4.5596965438870285
96,1,2-chan,4.682161948461359
97,2,2-chan,4.757581921414985
98,3,2-chan,4.521660442753811
99,4,2-chan,4.368760770599074
100,5,2-chan,4.899083199918611
101,6,2-chan,4.5680813766356545
102,7,2-chan,4.3991912129765
103,8,2-chan,4.587882019791756
104,9,2-chan,5.006379629412085
105,10,2-chan,4.874451627330922
106,11,2-chan,4.6397589779836474
107,12,2-chan,4.678928245275194
108,13,2-chan,4.386680205329636
109,14,2-chan,5.188371648393857
110,15,2-chan,5.283905747843689
111,16,2-chan,4.689350710883749
112,17,2-chan,4.601071627654844
113,18,2-chan,4.217466774141527
114,19,2-chan,4.4185223678577215
115,20,2-chan,4.2649863741297525
116,21,2-chan,4.596092311873312
117,22,2-chan,4.974527141349673
118,23,2-chan,5.300212113052735
119,24,2-chan,4.392856616333897
120,1,1-chan,4.74192064482051
121,2,1-chan,4.5459434432082695
122,3,1-chan,4.569059189511248
123,4,1-chan,4.9821698157408685
124,5,1-chan,5.0040227909957
125,6,1-chan,4.323880113386626
126,7,1-chan,4.603854410754907
127,8,1-chan,4.76587247144344
128,9,1-chan,4.80125454084868
129,10,1-chan,4.9386928239477985
130,11,1-chan,4.730743915143669
131,12,1-chan,4.886303895008965
132,13,1-chan,4.545490153124643
133,14,1-chan,5.103500616003165
134,15,1-chan,4.452793902174888
135,16,1-chan,5.018827142389548
136,17,1-chan,4.310216641215367
137,18,1-chan,3.953490469117724
138,19,1-chan,4.214221014143557
139,20,1-chan,5.017771004311439
140,21,1-chan,5.147250893566915
141,22,1-chan,4.583118651810479
142,23,1-chan,4.4437117179949475
143,24,1-chan,4.9195276949990685
