,Subject,variable,value
0,1,original,0.5590973545128034
1,2,original,0.5488032825404358
2,3,original,0.35581899452170695
3,4,original,0.5493083639215897
4,5,original,0.5969186331852248
5,6,original,0.7387005478506515
6,7,original,0.44980578530968124
7,8,original,0.4705975736637344
8,9,original,0.36773540454319775
9,10,original,0.5770217299038394
10,11,original,0.4896881349618012
11,12,original,0.8082678005961513
12,13,original,0.8137848553752867
13,14,original,0.602142880795723
14,15,original,0.5977514782007259
15,16,original,0.7293814833869987
16,17,original,0.5575741527896896
17,18,original,0.1910713320073888
18,19,original,0.23085401389988086
19,20,original,0.7225720290467738
20,21,original,0.3455343983650515
21,22,original,0.5522088094753149
22,23,original,0.3158937480657263
23,24,original,0.281369823666201
24,1,7-chan,0.10002981217003581
25,2,7-chan,0.45909770762689506
26,3,7-chan,0.0906951894131867
27,4,7-chan,0.37702737807063647
28,5,7-chan,0.5263096792159776
29,6,7-chan,0.5280354773537049
30,7,7-chan,0.4054442068647888
31,8,7-chan,0.4560768446708687
32,9,7-chan,0.29062381718145325
33,10,7-chan,0.5067364661892007
34,11,7-chan,0.16560530694155556
35,12,7-chan,0.6250746575280178
36,13,7-chan,0.441205533058241
37,14,7-chan,0.46128072901279993
38,15,7-chan,0.33426665585058446
39,16,7-chan,0.553572048194046
40,17,7-chan,0.5470426706739201
41,18,7-chan,0.23019415977604213
42,19,7-chan,0.389047482894632
43,20,7-chan,0.39200615410545553
44,21,7-chan,0.4682892317925371
45,22,7-chan,0.4566507006998658
46,23,7-chan,0.32102592894002446
47,24,7-chan,0.31914301407584417
48,1,5-chan,0.4216798410809985
49,2,5-chan,0.5316374020520559
50,3,5-chan,0.2998571200034029
51,4,5-chan,0.4440763951319416
52,5,5-chan,0.41814193280481693
53,6,5-chan,0.1404967104774095
54,7,5-chan,0.40279550817826926
55,8,5-chan,0.533226928529151
56,9,5-chan,0.39581172183444085
57,10,5-chan,0.2921122933017917
58,11,5-chan,0.38954417714151357
59,12,5-chan,0.6383900381828681
60,13,5-chan,0.5127700763203267
61,14,5-chan,0.3601461764156529
62,15,5-chan,0.47219590860375765
63,16,5-chan,0.5372255790549355
64,17,5-chan,0.42427793936367564
65,18,5-chan,0.5058825210619098
66,19,5-chan,0.22205159291746226
67,20,5-chan,0.6962075251665225
68,21,5-chan,0.7145495954468204
69,22,5-chan,0.28455494650549473
70,23,5-chan,0.339962159658229
71,24,5-chan,0.3733313141965618
72,1,3-chan,0.12772052732773648
73,2,3-chan,0.408763185928612
74,3,3-chan,0.22009672274776865
75,4,3-chan,0.39684174401062644
76,5,3-chan,0.47196356951970453
77,6,3-chan,0.02551841956277797
78,7,3-chan,0.33676959583772964
79,8,3-chan,0.3889030434719193
80,9,3-chan,0.20299321382834254
81,10,3-chan,0.4830511982689929
82,11,3-chan,0.21122163802383778
83,12,3-chan,0.6283216935365775
84,13,3-chan,0.35928379740074023
85,14,3-chan,0.4854352407911129
86,15,3-chan,0.5247473194846933
87,16,3-chan,0.34487778593192814
88,17,3-chan,0.4793768100468052
89,18,3-chan,0.22536960496923283
90,19,3-chan,0.346760692587884
91,20,3-chan,0.20347761611004925
92,21,3-chan,0.2577312481764039
93,22,3-chan,0.5568502897471881
94,23,3-chan,0.2905982343975153
95,24,3-chan,0.33428672400270093
96,1,2-chan,0.23977545802846775
97,2,2-chan,0.4199470537739756
98,3,2-chan,0.25084907943021273
99,4,2-chan,0.4856402096857925
100,5,2-chan,0.3275486017208579
101,6,2-chan,0.21696802092712414
102,7,2-chan,0.0667516073527787
103,8,2-chan,0.30779100381993635
104,9,2-chan,0.268840319905988
105,10,2-chan,0.3745195408361645
106,11,2-chan,0.32950100572970864
107,12,2-chan,0.528269109213446
108,13,2-chan,0.42306356379105786
109,14,2-chan,0.35087372104436637
110,15,2-chan,0.544589150706095
111,16,2-chan,0.4603912401903295
112,17,2-chan,0.37459317967201783
113,18,2-chan,-0.10014642228532267
114,19,2-chan,0.3740542924665073
115,20,2-chan,0.4962057469003979
116,21,2-chan,0.3140232805737676
117,22,2-chan,0.23822580440534652
118,23,2-chan,0.3385940129693775
119,24,2-chan,0.5751259023945597
120,1,1-chan,0.34901665221151984
121,2,1-chan,0.23733663340811878
122,3,1-chan,-0.09079296982009338
123,4,1-chan,0.674693018138066
124,5,1-chan,0.23060608991369236
125,6,1-chan,-0.023573987828987605
126,7,1-chan,0.20050400697108303
127,8,1-chan,0.4619690333060571
128,9,1-chan,0.2634956437499942
129,10,1-chan,0.3361742013718665
130,11,1-chan,0.6350762673598208
131,12,1-chan,0.33449650938384484
132,13,1-chan,0.4802610237638938
133,14,1-chan,0.3267837213097098
134,15,1-chan,0.28015011308491783
135,16,1-chan,0.36634724685481906
136,17,1-chan,0.24230214756352447
137,18,1-chan,0.19822393320205095
138,19,1-chan,0.24088224264758784
139,20,1-chan,0.02571009258507834
140,21,1-chan,0.09904536954905509
141,22,1-chan,0.4165269782739564
142,23,1-chan,0.3068648811000959
143,24,1-chan,0.2172504352983555
