,Subject,variable,value
0,1,original,-1.3585415525356934
1,2,original,-1.4609309637928307
2,3,original,-1.7467347160567432
3,4,original,-1.4898525186251428
4,5,original,-1.4238168311155643
5,6,original,-1.2311697717004868
6,7,original,-1.5170905373939885
7,8,original,-1.4055330996449866
8,9,original,-1.5206324796366912
9,10,original,-1.4144409748342954
10,11,original,-1.5488698147278117
11,12,original,-1.1357695786189497
12,13,original,-1.1566137381049213
13,14,original,-1.3556511919409826
14,15,original,-1.3907146907391406
15,16,original,-1.2527493200796886
16,17,original,-1.3796256180045883
17,18,original,-1.6607592816483483
18,19,original,-1.6849075223790997
19,20,original,-1.2607851035854505
20,21,original,-1.6247396240104879
21,22,original,-1.453930963516747
22,23,original,-1.5849419195575927
23,24,original,-1.6875593097147068
24,1,7-chan,-1.7797543622266845
25,2,7-chan,-1.5256510373818917
26,3,7-chan,-1.9033072918166585
27,4,7-chan,-1.5999517256993747
28,5,7-chan,-1.3758937589136686
29,6,7-chan,-1.5320055173756888
30,7,7-chan,-1.5635557057898641
31,8,7-chan,-1.530031419692401
32,9,7-chan,-1.6062580864174674
33,10,7-chan,-1.554178788282747
34,11,7-chan,-1.683101040679856
35,12,7-chan,-1.274440174242943
36,13,7-chan,-1.434162745660304
37,14,7-chan,-1.5185908362916594
38,15,7-chan,-1.5462184613739474
39,16,7-chan,-1.4013833071339439
40,17,7-chan,-1.5307849166342054
41,18,7-chan,-1.8304414184229807
42,19,7-chan,-1.6611954721126165
43,20,7-chan,-1.48521577210067
44,21,7-chan,-1.5760336713067626
45,22,7-chan,-1.5576214689461867
46,23,7-chan,-1.6477814356643237
47,24,7-chan,-1.6280182023781444
48,1,5-chan,-1.6259200412667791
49,2,5-chan,-1.4895625988238574
50,3,5-chan,-1.7334183691342113
51,4,5-chan,-1.6068444199724907
52,5,5-chan,-1.5428162637829699
53,6,5-chan,-1.8731472550036143
54,7,5-chan,-1.522746935535662
55,8,5-chan,-1.4111819994567
56,9,5-chan,-1.5466785133902468
57,10,5-chan,-1.5228695438990107
58,11,5-chan,-1.6072094071291192
59,12,5-chan,-1.287442586820563
60,13,5-chan,-1.4068611789413856
61,14,5-chan,-1.590970557329494
62,15,5-chan,-1.4519215411156559
63,16,5-chan,-1.4012032832897054
64,17,5-chan,-1.4713613183314316
65,18,5-chan,-1.5433836269833587
66,19,5-chan,-1.7476047264999097
67,20,5-chan,-1.3055625235788555
68,21,5-chan,-1.353510153511185
69,22,5-chan,-1.6078820586717688
70,23,5-chan,-1.5599369782720338
71,24,5-chan,-1.6740936553207673
72,1,3-chan,-1.7748866136531984
73,2,3-chan,-1.6630631134191824
74,3,3-chan,-1.7689761101816905
75,4,3-chan,-1.6698538353213854
76,5,3-chan,-1.5348405639437501
77,6,3-chan,-1.9262457245972313
78,7,3-chan,-1.712412948881171
79,8,3-chan,-1.600987795000049
80,9,3-chan,-1.7621806152910606
81,10,3-chan,-1.6066384811569387
82,11,3-chan,-1.7980338754649143
83,12,3-chan,-1.3310509991403832
84,13,3-chan,-1.541390598149959
85,14,3-chan,-1.532548058583167
86,15,3-chan,-1.4886578642209223
87,16,3-chan,-1.5949276229523397
88,17,3-chan,-1.4908920500227896
89,18,3-chan,-1.7790149144416383
90,19,3-chan,-1.7973132322877514
91,20,3-chan,-1.76915729116887
92,21,3-chan,-1.696233086220932
93,22,3-chan,-1.478965908611113
94,23,3-chan,-1.725596154252663
95,24,3-chan,-1.770799384608614
96,1,2-chan,-1.726076795511187
97,2,2-chan,-1.5618073859095327
98,3,2-chan,-1.7407292206869858
99,4,2-chan,-1.5399676278873837
100,5,2-chan,-1.6884465244090308
101,6,2-chan,-1.806275770323294
102,7,2-chan,-1.842284247762848
103,8,2-chan,-1.566849610771951
104,9,2-chan,-1.7754907822116566
105,10,2-chan,-1.5683586913596768
106,11,2-chan,-1.7079854057804578
107,12,2-chan,-1.3998495156634347
108,13,2-chan,-1.464127105034842
109,14,2-chan,-1.61118356088112
110,15,2-chan,-1.498872956407783
111,16,2-chan,-1.4362623861626032
112,17,2-chan,-1.5749289333956698
113,18,2-chan,-1.9965790052918704
114,19,2-chan,-1.6369079910194004
115,20,2-chan,-1.5210592785805301
116,21,2-chan,-1.628148156462162
117,22,2-chan,-1.6046094464482774
118,23,2-chan,-1.5656561773951347
119,24,2-chan,-1.5220250113320286
120,1,1-chan,-1.6243998302754445
121,2,1-chan,-1.7370744610188231
122,3,1-chan,-2.0968849885023237
123,4,1-chan,-1.460742990148804
124,5,1-chan,-1.6878212044271066
125,6,1-chan,-1.971129426910252
126,7,1-chan,-1.7391515711100558
127,8,1-chan,-1.5083251072726838
128,9,1-chan,-1.7054061009976766
129,10,1-chan,-1.6965691173335424
130,11,1-chan,-1.439503081982189
131,12,1-chan,-1.5938637155075175
132,13,1-chan,-1.50273845986904
133,14,1-chan,-1.6483169976724046
134,15,1-chan,-1.6696269651159124
135,16,1-chan,-1.6692979530934104
136,17,1-chan,-1.70692401647814
137,18,1-chan,-1.8265021848254537
138,19,1-chan,-1.7730458061124188
139,20,1-chan,-1.904973510528833
140,21,1-chan,-1.8245605168965189
141,22,1-chan,-1.6685248316137693
142,23,1-chan,-1.6361166026559286
143,24,1-chan,-1.8202886573696038
