,Subject,variable,value
0,1,original,0.4410336489894712
1,2,original,0.5018741845090927
2,3,original,0.504140214937405
3,4,original,0.5353031417732849
4,5,original,0.5849442544224094
5,6,original,0.5308119105395278
6,7,original,0.5026279290316882
7,8,original,0.47633443360549776
8,9,original,0.5233514677848389
9,10,original,0.519947507121206
10,11,original,0.5265321964571109
11,12,original,0.490072700010998
12,13,original,0.4943187625401983
13,14,original,0.46195384251925725
14,15,original,0.502091221611224
15,16,original,0.5376826874183193
16,17,original,0.5410926760221054
17,18,original,0.47496437982487766
18,19,original,0.4834410323660632
19,20,original,0.41915608880692673
20,21,original,0.44130666659512063
21,22,original,0.47720690431165175
22,23,original,0.49334078405264914
23,24,original,0.5138657056769321
24,1,7-chan,0.5114506246903574
25,2,7-chan,0.4566479641969544
26,3,7-chan,0.415502286027334
27,4,7-chan,0.4422551367471959
28,5,7-chan,0.4970300335090699
29,6,7-chan,0.5527609377744163
30,7,7-chan,0.5123495022722652
31,8,7-chan,0.5337081659008811
32,9,7-chan,0.4792923016896791
33,10,7-chan,0.5495821881406903
34,11,7-chan,0.480360029413881
35,12,7-chan,0.43947192905532356
36,13,7-chan,0.4925632371957052
37,14,7-chan,0.466534398695625
38,15,7-chan,0.44775211124933584
39,16,7-chan,0.5344244814724637
40,17,7-chan,0.5618508208947189
41,18,7-chan,0.569224011049486
42,19,7-chan,0.5571681461026343
43,20,7-chan,0.40589138903660366
44,21,7-chan,0.4831515635403804
45,22,7-chan,0.5033411714060412
46,23,7-chan,0.553428708861685
47,24,7-chan,0.5307792212916067
48,1,5-chan,0.5300865894834697
49,2,5-chan,0.46485661244826354
50,3,5-chan,0.48625785283019685
51,4,5-chan,0.531026258829899
52,5,5-chan,0.5504413723008887
53,6,5-chan,0.5650882761651558
54,7,5-chan,0.5513995013272188
55,8,5-chan,0.521411003400418
56,9,5-chan,0.46304984946583994
57,10,5-chan,0.4501476036725552
58,11,5-chan,0.5376600100819662
59,12,5-chan,0.4753629840797566
60,13,5-chan,0.5085048393075803
61,14,5-chan,0.495581721342837
62,15,5-chan,0.4306268827502109
63,16,5-chan,0.46952029931046796
64,17,5-chan,0.4695216273347046
65,18,5-chan,0.527298569710882
66,19,5-chan,0.5728140791851252
67,20,5-chan,0.4158765076235426
68,21,5-chan,0.48660565492503827
69,22,5-chan,0.4343056120375034
70,23,5-chan,0.4359811110605578
71,24,5-chan,0.5481036201109226
72,1,3-chan,0.5447959742694455
73,2,3-chan,0.5074390143873566
74,3,3-chan,0.42083170503566597
75,4,3-chan,0.5047066792761925
76,5,3-chan,0.54784485785236
77,6,3-chan,0.5453745063104815
78,7,3-chan,0.595106653752912
79,8,3-chan,0.5091333300877978
80,9,3-chan,0.5499816470805885
81,10,3-chan,0.5400932309708077
82,11,3-chan,0.5486636130175441
83,12,3-chan,0.4811340287590562
84,13,3-chan,0.5374381064741806
85,14,3-chan,0.4667483520023377
86,15,3-chan,0.49341970622661857
87,16,3-chan,0.5329969750018059
88,17,3-chan,0.5229766708313097
89,18,3-chan,0.47763347143895213
90,19,3-chan,0.49077782631617395
91,20,3-chan,0.46937633626802105
92,21,3-chan,0.45675334177879656
93,22,3-chan,0.48047719666436783
94,23,3-chan,0.5784010524747039
95,24,3-chan,0.5475389272654132
96,1,2-chan,0.5270859929075047
97,2,2-chan,0.45389182243796383
98,3,2-chan,0.4487060193090287
99,4,2-chan,0.48026998960867184
100,5,2-chan,0.5889899192177432
101,6,2-chan,0.5093001090459264
102,7,2-chan,0.5020873058636929
103,8,2-chan,0.4701488685401242
104,9,2-chan,0.5386922860028338
105,10,2-chan,0.4567763465215242
106,11,2-chan,0.5873430794460929
107,12,2-chan,0.4557454614255633
108,13,2-chan,0.49055137196119103
109,14,2-chan,0.459976455333636
110,15,2-chan,0.591020094224407
111,16,2-chan,0.48212747874935596
112,17,2-chan,0.48441139175298065
113,18,2-chan,0.44058839248219156
114,19,2-chan,0.46035265228737915
115,20,2-chan,0.47934816948679354
116,21,2-chan,0.5111771432935126
117,22,2-chan,0.4601140216142611
118,23,2-chan,0.4662528595774278
119,24,2-chan,0.4978541362507498
120,1,1-chan,0.48695795724181545
121,2,1-chan,0.4600076430360836
122,3,1-chan,0.45598911342376963
123,4,1-chan,0.4635980792609781
124,5,1-chan,0.462215571905176
125,6,1-chan,0.46858246336277093
126,7,1-chan,0.49202730063293376
127,8,1-chan,0.430502269742415
128,9,1-chan,0.4672426334907928
129,10,1-chan,0.5033571447112685
130,11,1-chan,0.48637362407951296
131,12,1-chan,0.46249933159195766
132,13,1-chan,0.5308360482594973
133,14,1-chan,0.4668606944733886
134,15,1-chan,0.4701887080225078
135,16,1-chan,0.5259743852075259
136,17,1-chan,0.4304169735465548
137,18,1-chan,0.4873333169268693
138,19,1-chan,0.49346475304232645
139,20,1-chan,0.45462837707408277
140,21,1-chan,0.47467963643757727
141,22,1-chan,0.5202303041851144
142,23,1-chan,0.46978839006362644
143,24,1-chan,0.5224804176276315
