﻿Subject,original,7-chan,5-chan,3-chan,2-chan,1-chan
1,0.040460159,0.031076188,0.029008964,0.027998097,0.02961262,0.029884913
2,0.031973449,0.029595374,0.032147782,0.025683269,0.030339885,0.0247012
3,0.018385279,0.016790919,0.020764988,0.023120242,0.023057883,0.014587154
4,0.03302859,0.027194515,0.02950493,0.02295806,0.028032146,0.026831528
5,0.037570736,0.042050901,0.035936189,0.032935549,0.028815,0.025519969
6,0.047693207,0.031743191,0.022381857,0.02228081,0.023438388,0.019652105
7,0.034324654,0.034342005,0.038336357,0.027721198,0.029771565,0.029002127
8,0.038482499,0.033855213,0.038459395,0.029766163,0.032488568,0.031233725
9,0.039335947,0.028344553,0.033819948,0.025920807,0.023674812,0.024528516
10,0.040767212,0.033269058,0.03650432,0.029293812,0.031293476,0.026900043
11,0.032137674,0.0314525,0.033616066,0.027378604,0.029381326,0.030929681
12,0.053657108,0.041599632,0.042803256,0.040161956,0.036425646,0.029213719
13,0.050211057,0.043031554,0.045439757,0.04243656,0.039375479,0.036146148
14,0.036868032,0.032198598,0.02909599,0.027749842,0.027355321,0.026230774
15,0.037598239,0.033239412,0.034229857,0.032286126,0.035556506,0.026686676
16,0.042724411,0.036516637,0.037653624,0.033787486,0.039710716,0.02942779
17,0.040729419,0.033708533,0.036994277,0.033792373,0.029449596,0.025960587
18,0.033603794,0.024236825,0.029308516,0.023491134,0.018317303,0.019398174
19,0.027303564,0.025771564,0.026088326,0.018983863,0.025732421,0.023371956
20,0.037197371,0.03245637,0.037012066,0.025982323,0.029832327,0.022828915
21,0.027095843,0.029537122,0.035063901,0.024678136,0.028899319,0.024062843
22,0.035873068,0.029516346,0.029156035,0.029275514,0.028799596,0.024430555
23,0.033655387,0.027976478,0.031592262,0.025137081,0.031505075,0.02671046
24,0.028203209,0.031774896,0.026755279,0.021639634,0.028252044,0.023295526