﻿Subject,original,7-chan,5-chan,3-chan,2-chan,1-chan
1,1.2166997,2.0850092,2.4364758,3.0109453,2.8466566,1.8995893
2,1.2584442,2.1013412,1.8742099,1.363912,1.616023,2.0753907
3,0.7768326,0.7424567,2.0135869,0.7148333,0.7585984,0.6643429
4,0.8411635,1.7953488,1.2381819,1.441807,1.5034473,1.7987283
5,0.8186559,1.6022472,1.7174812,2.064517,2.4531378,3.1148535
6,1.119677,0.6637896,1.1928758,0.873389,0.7374951,0.8884802
7,0.9210591,1.7349602,2.1081502,2.1717632,1.6912866,1.6906788
8,1.5660227,3.4376188,3.179462,2.5284722,2.8773448,2.7822354
9,0.811403,1.8375246,1.1993852,1.7564519,2.2906051,2.0575447
10,1.0533164,2.4676908,3.2927056,2.1364656,2.5113718,2.788387
11,0.9672327,1.4461832,1.7000964,2.4977992,1.6362885,1.6348065
12,1.3708491,1.8300355,1.9134624,1.3722495,2.0566189,2.8137423
13,1.5771863,2.8081888,3.4164684,3.4964061,3.2432277,3.8468747
14,0.7787187,1.2058632,1.0431989,0.9231664,1.3963279,1.56184
15,1.5407249,2.6354235,3.5504537,3.2758768,3.6456462,1.8242844
16,1.2712626,1.4471244,0.913774,1.0375851,0.8343261,1.2365399
17,0.9506803,1.6362813,1.0347287,1.3229123,1.8047195,1.0907854
18,1.504504,1.0945147,0.9546284,1.0321203,0.9017567,0.7492754
19,0.6344568,0.6583775,1.4489557,1.4358398,1.034167,0.9005609
20,1.4262909,1.7685759,2.617974,1.4868641,2.1800238,1.8432125
21,1.1920261,1.7098486,1.5764823,1.8356098,1.4644937,1.6792328
22,1.1784942,1.9953362,1.9861092,1.8149743,1.0577553,1.7401047
23,0.9741151,1.0642672,1.65447,2.4034546,2.2914061,2.8416847
24,0.8729282,1.1186069,1.2255177,1.0221647,0.6494448,1.4145739